U[m/s] alpha[deg] Fx[N] Fy[N] Fz[N] Mx[Nm] My[Nm] Mz[Nm]
22.0 -5.0 8.878037429 -5.3056943 -2.924586 2.301121 8.4863609 -2.83496735
22.0 -2.0 3.434074694 29.0709323 -4.652017 -23.454008400000003 5.221920699999999 17.06455665
22.0 0.0 0.544136737 52.54769207 -4.507949 -40.5920609 2.905489 30.27453742
22.0 2.0 -1.4621202700000002 75.48486851000001 -3.2913259999999998 -57.0328319 0.6190031 42.896801579999995
22.0 5.0 -3.04557379 107.719160582 0.1514350000000002 -79.7965202 -2.6540501 59.889190498000005
22.0 6.0 -3.1200742299999997 117.0538286 1.6307040000000002 -86.3643143 -3.5961499999999997 64.486473384
22.0 8.0 -2.67692502 131.92063624 4.629504 -97.03965240000001 -5.0321593 70.74238088999999
22.0 10.0 -0.9655291000000001 136.3131706 6.185433 -101.67903799999999 -4.8021956999999995 67.53338253999999
