v -0.000509926 0.278567 1.11176
v -0.000509926 0.29794 1.05689
l 1 2
v -0.000509926 0.225 0.332309
v -0.000509926 0.22491 0.328364
l 3 4
v -0.000509926 0.155 0.332309
v -0.000509926 0.154981 0.334944
l 5 6
v -0.000509926 0.226144 0.345448
v -0.000509926 0.225 0.332309
l 7 8
v -0.000509926 0.154981 0.334944
v -0.000509926 0.154038 0.351435
l 9 10
v -0.000509926 0.233587 0.381147
v -0.000509926 0.226144 0.345448
l 11 12
v -0.000509926 0.154038 0.351435
v -0.000509926 0.151755 0.368118
l 13 14
v -0.000509926 0.151755 0.368118
v -0.000509926 0.148249 0.385052
l 15 16
v -0.000509926 0.253289 0.453021
v -0.000509926 0.233587 0.381147
l 17 18
v -0.000509926 0.148249 0.385052
v -0.000509926 0.143651 0.402308
l 19 20
v -0.000509926 0.19 0.262309
v -0.000509926 0.177437 0.274944
l 21 22
v -0.000509926 0.202563 0.274944
v -0.000509926 0.19 0.262309
l 23 24
v -0.000509926 0.143651 0.402308
v -0.000509926 0.138108 0.419967
l 25 26
v -0.000509926 0.138108 0.419967
v -0.000509926 0.136038 0.426078
l 27 28
v -0.000509926 0.282777 0.556155
v -0.000509926 0.253289 0.453021
l 29 30
v -0.000509926 0.136038 0.426078
v -0.000509926 0.123459 0.460804
l 31 32
v -0.000509926 0.160959 0.301422
v -0.000509926 0.156811 0.314934
l 33 34
v -0.000509926 0.156811 0.314934
v -0.000509926 0.15509 0.328364
l 35 36
v -0.000509926 0.15509 0.328364
v -0.000509926 0.155 0.332309
l 37 38
v -0.000509926 0.0716353 0.721269
v -0.000509926 0.0716881 0.7635
l 39 40
v -0.000509926 0.223189 0.314934
v -0.000509926 0.219041 0.301422
l 41 42
v -0.000509926 0.219041 0.301422
v -0.000509926 0.212276 0.288125
l 43 44
v -0.000509926 0.212276 0.288125
v -0.000509926 0.202563 0.274944
l 45 46
v -0.000509926 0.22491 0.328364
v -0.000509926 0.223189 0.314934
l 47 48
v -0.000509926 0.177437 0.274944
v -0.000509926 0.167724 0.288125
l 49 50
v -0.000509926 0.167724 0.288125
v -0.000509926 0.160959 0.301422
l 51 52
v -0.000509926 0.329267 0.826041
v -0.000509926 0.325576 0.768689
l 53 54
v -0.000509926 0.0746732 0.869352
v -0.000509926 0.0764729 0.896844
l 55 56
v -0.000509926 0.328488 0.884947
v -0.000509926 0.329267 0.826041
l 57 58
v -0.000509926 0.0727015 0.820376
v -0.000509926 0.0746732 0.869352
l 59 60
v -0.000509926 0.0716881 0.7635
v -0.000509926 0.0727015 0.820376
l 61 62
v -0.000509926 0.19411 1.25481
v -0.000509926 0.195358 1.2539
l 63 64
v -0.000509926 0.1994 1.25059
v -0.000509926 0.202028 1.24813
l 65 66
v -0.000509926 0.202028 1.24813
v -0.000509926 0.20318 1.24697
l 67 68
v -0.000509926 0.20318 1.24697
v -0.000509926 0.204645 1.24543
l 69 70
v -0.000509926 0.29794 1.05689
v -0.000509926 0.312714 1.00042
l 71 72
v -0.000509926 0.101521 1.06524
v -0.000509926 0.113091 1.11885
l 73 74
v -0.000509926 0.113091 1.11885
v -0.000509926 0.115071 1.12739
l 75 76
v -0.000509926 0.145 1.23231
v -0.000509926 0.147885 1.23934
l 77 78
v -0.000509926 0.123501 1.16141
v -0.000509926 0.13422 1.19938
l 79 80
v -0.000509926 0.195358 1.2539
v -0.000509926 0.196761 1.25282
l 81 82
v -0.000509926 0.196761 1.25282
v -0.000509926 0.1994 1.25059
l 83 84
v -0.000509926 0.204645 1.24543
v -0.000509926 0.215 1.23231
l 85 86
v -0.000509926 0.215 1.23231
v -0.000509926 0.227536 1.21282
l 87 88
v -0.000509926 0.115071 1.12739
v -0.000509926 0.123501 1.16141
l 89 90
v -0.000509926 0.227536 1.21282
v -0.000509926 0.255131 1.16357
l 91 92
v -0.000509926 0.255131 1.16357
v -0.000509926 0.278567 1.11176
l 93 94
v -0.000509926 0.325576 0.768689
v -0.000509926 0.317356 0.707528
l 95 96
v -0.000509926 0.317356 0.707528
v -0.000509926 0.310886 0.67225
l 97 98
v -0.000509926 0.0723533 0.691449
v -0.000509926 0.0716353 0.721269
l 99 100
v -0.000509926 0.310886 0.67225
v -0.000509926 0.304069 0.640212
l 101 102
v -0.000509926 0.0739633 0.662732
v -0.000509926 0.0723533 0.691449
l 103 104
v -0.000509926 0.13422 1.19938
v -0.000509926 0.145 1.23231
l 105 106
v -0.000509926 0.188775 1.25809
v -0.000509926 0.191448 1.25657
l 107 108
v -0.000509926 0.191448 1.25657
v -0.000509926 0.19411 1.25481
l 109 110
v -0.000509926 0.0764729 0.896844
v -0.000509926 0.0772227 0.906159
l 111 112
v -0.000509926 0.0772227 0.906159
v -0.000509926 0.080192 0.936217
l 113 114
v -0.000509926 0.322904 0.943057
v -0.000509926 0.328488 0.884947
l 115 116
v -0.000509926 0.080192 0.936217
v -0.000509926 0.0854506 0.97601
l 117 118
v -0.000509926 0.312714 1.00042
v -0.000509926 0.322904 0.943057
l 119 120
v -0.000509926 0.0854506 0.97601
v -0.000509926 0.0921442 1.0166
l 121 122
v -0.000509926 0.0921442 1.0166
v -0.000509926 0.101521 1.06524
l 123 124
v -0.000509926 0.147885 1.23934
v -0.000509926 0.148468 1.24061
l 125 126
v -0.000509926 0.148468 1.24061
v -0.000509926 0.153434 1.24957
l 127 128
v -0.000509926 0.153434 1.24957
v -0.000509926 0.154683 1.25137
l 129 130
v -0.000509926 0.183395 1.26043
v -0.000509926 0.188261 1.25836
l 131 132
v -0.000509926 0.188261 1.25836
v -0.000509926 0.188775 1.25809
l 133 134
v -0.000509926 0.157487 1.25481
v -0.000509926 0.158763 1.25613
l 135 136
v -0.000509926 0.154683 1.25137
v -0.000509926 0.157487 1.25481
l 137 138
v -0.000509926 0.123459 0.460804
v -0.000509926 0.108286 0.50325
l 139 140
v -0.000509926 0.108286 0.50325
v -0.000509926 0.103471 0.517835
l 141 142
v -0.000509926 0.304069 0.640212
v -0.000509926 0.282777 0.556155
l 143 144
v -0.000509926 0.103471 0.517835
v -0.000509926 0.0936316 0.550649
l 145 146
v -0.000509926 0.0936316 0.550649
v -0.000509926 0.0859033 0.581419
l 147 148
v -0.000509926 0.1725 1.26231
v -0.000509926 0.175241 1.26219
l 149 150
v -0.000509926 0.16973 1.26209
v -0.000509926 0.1725 1.26231
l 151 152
v -0.000509926 0.0859033 0.581419
v -0.000509926 0.0801345 0.610714
l 153 154
v -0.000509926 0.0801345 0.610714
v -0.000509926 0.0766485 0.635004
l 155 156
v -0.000509926 0.0766485 0.635004
v -0.000509926 0.0739633 0.662732
l 157 158
v -0.000509926 0.159838 1.25712
v -0.000509926 0.163015 1.2595
l 159 160
v -0.000509926 0.163015 1.2595
v -0.000509926 0.165801 1.26095
l 161 162
v -0.000509926 0.165801 1.26095
v -0.000509926 0.16708 1.26143
l 163 164
v -0.000509926 0.158763 1.25613
v -0.000509926 0.159838 1.25712
l 165 166
v -0.000509926 0.16708 1.26143
v -0.000509926 0.16851 1.26184
l 167 168
v -0.000509926 0.16851 1.26184
v -0.000509926 0.16973 1.26209
l 169 170
v -0.000509926 0.175241 1.26219
v -0.000509926 0.176965 1.262
l 171 172
v -0.000509926 0.176965 1.262
v -0.000509926 0.182097 1.26086
l 173 174
v -0.000509926 0.182097 1.26086
v -0.000509926 0.183395 1.26043
l 175 176
v 0.399479 0.20858 0.0542784
v 0.399464 0.209295 0.0544099
l 177 178
v 0.399464 0.209295 0.0544099
v 0.399444 0.210758 0.0544612
l 179 180
v 0.399444 0.210758 0.0544612
v 0.399422 0.212213 0.0542985
l 181 182
v 0.399422 0.212213 0.0542985
v 0.399397 0.213628 0.0539253
l 183 184
v 0.399965 -3.46748e-09 0.00026679
v 0.399996 -3.46748e-09 0.000326395
l 185 186
v 0.399996 -3.46748e-09 0.000326395
v 0.400015 -3.46748e-09 0.000376582
l 187 188
v 0.400015 -3.46748e-09 0.000376582
v 0.400026 -3.46748e-09 0.000412225
l 189 190
v 0.398938 -3.46748e-09 0.000495314
v 0.398946 -3.46748e-09 0.000446677
l 191 192
v 0.399874 -3.46748e-09 0.000154614
v 0.399904 -3.46748e-09 0.00018537
l 193 194
v 0.399904 -3.46748e-09 0.00018537
v 0.399957 -3.46748e-09 0.000253677
l 195 196
v 0.399957 -3.46748e-09 0.000253677
v 0.399965 -3.46748e-09 0.00026679
l 197 198
v 0.402411 -3.46748e-09 0.0494322
v 0.402258 -3.46748e-09 0.0512618
l 199 200
v 0.400026 -3.46748e-09 0.000412225
v 0.400042 -3.46748e-09 0.000495314
l 201 202
v 0.400042 -3.46748e-09 0.000495314
v 0.400087 -3.46748e-09 0.000920534
l 203 204
v 0.398792 -3.46748e-09 0.00187075
v 0.398938 -3.46748e-09 0.000495314
l 205 206
v 0.400087 -3.46748e-09 0.000920534
v 0.400188 -3.46748e-09 0.00187135
l 207 208
v 0.398596 -3.46748e-09 0.00377202
v 0.398792 -3.46748e-09 0.00187075
l 209 210
v 0.400188 -3.46748e-09 0.00187135
v 0.400385 -3.46748e-09 0.00377262
l 211 212
v 0.398223 -3.46748e-09 0.00757349
v 0.398596 -3.46748e-09 0.00377202
l 213 214
v 0.400385 -3.46748e-09 0.00377262
v 0.400758 -3.46748e-09 0.00757396
l 215 216
v 0.397554 -3.46748e-09 0.0151727
v 0.398223 -3.46748e-09 0.00757349
l 217 218
v 0.398946 -3.46748e-09 0.000446677
v 0.398968 -3.46748e-09 0.000367164
l 219 220
v 0.398968 -3.46748e-09 0.000367164
v 0.398995 -3.46748e-09 0.000303626
l 221 222
v 0.399835 -3.46748e-09 0.000120878
v 0.399874 -3.46748e-09 0.000154614
l 223 224
v 0.399789 -3.46748e-09 8.76186e-05
v 0.399835 -3.46748e-09 0.000120878
l 225 226
v 0.399007 -3.46748e-09 0.000282287
v 0.399051 -3.46748e-09 0.000215292
l 227 228
v 0.398995 -3.46748e-09 0.000303626
v 0.399007 -3.46748e-09 0.000282287
l 229 230
v 0.399491 -3.46748e-09 -2.63245e-10
v 0.399512 -3.46748e-09 4.76574e-07
l 231 232
v 0.399512 -3.46748e-09 4.76574e-07
v 0.399597 -3.46748e-09 1.03709e-05
l 233 234
v 0.399051 -3.46748e-09 0.000215292
v 0.399071 -3.46748e-09 0.000190615
l 235 236
v 0.399071 -3.46748e-09 0.000190615
v 0.399112 -3.46748e-09 0.000149131
l 237 238
v 0.399422 -3.46748e-09 4.29127e-06
v 0.399491 -3.46748e-09 -2.63245e-10
l 239 240
v 0.399112 -3.46748e-09 0.000149131
v 0.399183 -3.46748e-09 9.31022e-05
l 241 242
v 0.399335 -3.46748e-09 2.19342e-05
v 0.399422 -3.46748e-09 4.29127e-06
l 243 244
v 0.399259 -3.46748e-09 5.00676e-05
v 0.399335 -3.46748e-09 2.19342e-05
l 245 246
v 0.399183 -3.46748e-09 9.31022e-05
v 0.399259 -3.46748e-09 5.00676e-05
l 247 248
v 0.399597 -3.46748e-09 1.03709e-05
v 0.399677 -3.46748e-09 3.2067e-05
l 249 250
v 0.399677 -3.46748e-09 3.2067e-05
v 0.399751 -3.46748e-09 6.52072e-05
l 251 252
v 0.399751 -3.46748e-09 6.52072e-05
v 0.399789 -3.46748e-09 8.76186e-05
l 253 254
v 0.396821 -3.46748e-09 0.0522074
v 0.396723 -3.46748e-09 0.0512617
l 255 256
v 0.402258 -3.46748e-09 0.0512618
v 0.402159 -3.46748e-09 0.0522075
l 257 258
v 0.401726 -3.46748e-09 0.0190364
v 0.402578 -3.46748e-09 0.0344945
l 259 260
v 0.396562 -3.46748e-09 0.0303662
v 0.397554 -3.46748e-09 0.0151727
l 261 262
v 0.401426 -3.46748e-09 0.0151732
v 0.401726 -3.46748e-09 0.0190364
l 263 264
v 0.400758 -3.46748e-09 0.00757396
v 0.401426 -3.46748e-09 0.0151732
l 265 266
v 0.396723 -3.46748e-09 0.0512617
v 0.396645 -3.46748e-09 0.0504059
l 267 268
v 0.396645 -3.46748e-09 0.0504059
v 0.396637 -3.46748e-09 0.0503147
l 269 270
v 0.402416 -3.46748e-09 0.049367
v 0.402411 -3.46748e-09 0.0494322
l 271 272
v 0.396637 -3.46748e-09 0.0503147
v 0.396564 -3.46748e-09 0.0493667
l 273 274
v 0.40253 -3.46748e-09 0.0474691
v 0.402416 -3.46748e-09 0.049367
l 275 276
v 0.396564 -3.46748e-09 0.0493667
v 0.39645 -3.46748e-09 0.047469
l 277 278
v 0.402609 -3.46748e-09 0.0455698
v 0.40253 -3.46748e-09 0.0474691
l 279 280
v 0.39645 -3.46748e-09 0.047469
v 0.396371 -3.46748e-09 0.0455695
l 281 282
v 0.402659 -3.46748e-09 0.0379672
v 0.402609 -3.46748e-09 0.0455698
l 283 284
v 0.396371 -3.46748e-09 0.0455695
v 0.396308 -3.46748e-09 0.0389386
l 285 286
v 0.402578 -3.46748e-09 0.0344945
v 0.402659 -3.46748e-09 0.0379672
l 287 288
v 0.396308 -3.46748e-09 0.0389386
v 0.3965 -3.46748e-09 0.0318006
l 289 290
v 0.3965 -3.46748e-09 0.0318006
v 0.396562 -3.46748e-09 0.0303662
l 291 292
v 0.39948 0.207855 0.0541452
v 0.399479 0.20858 0.0542784
l 293 294
v 0.399454 0.209776 0.0544505
v 0.399454 0.20978 0.0544508
l 295 296
v 0.399468 0.20881 0.054345
v 0.399454 0.20978 0.0544508
l 297 298
v 0.399438 0.210756 0.0544615
v 0.399422 0.211735 0.0543759
l 299 300
v 0.398776 0.0435172 0.121463
v 0.398964 0.0363241 0.116103
l 301 302
v 0.398917 0.0511213 0.126794
v 0.398776 0.0435172 0.121463
l 303 304
v 0.39959 0.0511199 0.126961
v 0.399681 0.0435146 0.121715
l 305 306
v 0.400925 0.0363405 0.11518
v 0.401052 0.0296228 0.109177
l 307 308
v 0.399681 0.0435146 0.121715
v 0.399582 0.0363225 0.116257
l 309 310
v 0.39939 0.0511199 0.126961
v 0.399299 0.0435146 0.121715
l 311 312
v 0.399299 0.0435146 0.121715
v 0.399398 0.0363225 0.116257
l 313 314
v 0.400063 0.0511213 0.126794
v 0.400204 0.0435172 0.121463
l 315 316
v 0.400798 0.0234075 0.103477
v 0.401052 0.0296228 0.109177
l 317 318
v 0.399333 0.171444 0.192042
v 0.399348 0.1383 0.172727
l 319 320
v 0.397928 0.0296228 0.109177
v 0.398055 0.0363405 0.11518
l 321 322
v 0.397928 0.0296228 0.109177
v 0.398182 0.0234075 0.103477
l 323 324
v 0.400016 0.0363241 0.116103
v 0.400204 0.0435172 0.121463
l 325 326
v 0.399022 0.252377 0.472726
v 0.399022 0.235 0.472726
l 327 328
v 0.399958 0.235 0.472726
v 0.399958 0.252438 0.472726
l 329 330
v 1.20018 0.449921 0.196266
v 1.20003 0.449921 0.194337
l 331 332
v 1.20003 0.449921 0.194337
v 1.19949 0.449921 0.194337
l 333 334
v 1.20039 0.449921 0.199601
v 1.20036 0.449921 0.199086
l 335 336
v 1.20036 0.449921 0.199086
v 1.20031 0.449921 0.198153
l 337 338
v 1.20031 0.449921 0.198153
v 1.20018 0.449921 0.196266
l 339 340
v 1.19856 0.449921 0.200395
v 1.19854 0.449921 0.200848
l 341 342
v 1.19854 0.449921 0.200848
v 1.19853 0.449921 0.201301
l 343 344
v 1.20046 0.449921 0.20185
v 1.20045 0.449921 0.201392
l 345 346
v 1.20047 0.449921 0.202308
v 1.20046 0.449921 0.20185
l 347 348
v 1.20047 0.449921 0.202595
v 1.20047 0.449921 0.202308
l 349 350
v 1.20045 0.449921 0.201392
v 1.20044 0.449921 0.200933
l 351 352
v 1.20044 0.449921 0.200933
v 1.20041 0.449921 0.200012
l 353 354
v 1.20041 0.449921 0.200012
v 1.20039 0.449921 0.199601
l 355 356
v 1.19895 0.449921 0.194337
v 1.19876 0.449921 0.196826
l 357 358
v 1.19949 0.449921 0.194337
v 1.19895 0.449921 0.194337
l 359 360
v 1.19876 0.449921 0.196826
v 1.19867 0.449921 0.198107
l 361 362
v 1.19867 0.449921 0.198107
v 1.19862 0.449921 0.199026
l 363 364
v 1.19862 0.449921 0.199026
v 1.19858 0.449921 0.19994
l 365 366
v 1.19858 0.449921 0.19994
v 1.19856 0.449921 0.200395
l 367 368
v 1.19853 0.449921 0.201301
v 1.19852 0.449921 0.201754
l 369 370
v 0.954628 0.289946 0.295327
v 0.994441 0.292657 0.2859
l 371 372
v 0.954676 0.291055 0.295321
v 0.905721 0.287831 0.306912
l 373 374
v 0.847108 0.284005 0.320792
v 0.784004 0.279904 0.335733
l 375 376
v 1.15635 0.354304 0.22999
v 1.15408 0.352202 0.231091
l 377 378
v 1.05851 0.303216 0.267347
v 1.03946 0.298975 0.273227
l 379 380
v 0.534666 0.262287 0.394732
v 0.600443 0.26661 0.379173
l 381 382
v 0.466824 0.257838 0.410777
v 0.534666 0.262287 0.394732
l 383 384
v 0.396725 0.253251 0.427356
v 0.466824 0.257838 0.410777
l 385 386
v 0.324284 0.24852 0.444488
v 0.396725 0.253251 0.427356
l 387 388
v 0.24949 0.243639 0.462177
v 0.324284 0.24852 0.444488
l 389 390
v 1.00953 0.294804 0.281931
v 0.99445 0.293705 0.2859
l 391 392
v 1.02687 0.296863 0.276957
v 1.00953 0.294804 0.281931
l 393 394
v 1.08776 0.312511 0.257661
v 1.06754 0.305704 0.264445
l 395 396
v 1.16877 0.36741 0.223549
v 1.15635 0.354304 0.22999
l 397 398
v 1.15408 0.352202 0.231091
v 1.13681 0.338377 0.238897
l 399 400
v 1.19524 0.418486 0.203653
v 1.19334 0.411676 0.205925
l 401 402
v 1.18533 0.392135 0.213039
v 1.17899 0.3812 0.217455
l 403 404
v 1.18748 0.396512 0.211363
v 1.18533 0.392135 0.213039
l 405 406
v 1.19676 0.425462 0.201426
v 1.19524 0.418486 0.203653
l 407 408
v 1.19861 0.439962 0.197095
v 1.19676 0.425462 0.201426
l 409 410
v 1.19895 0.449921 0.194337
v 1.19861 0.439962 0.197095
l 411 412
v 1.17899 0.3812 0.217455
v 1.16877 0.36741 0.223549
l 413 414
v 1.19334 0.411676 0.205925
v 1.18748 0.396512 0.211363
l 415 416
v 1.06543 0.330713 0.558924
v 1.08057 0.33362 0.544462
l 417 418
v 1.06543 0.330713 0.558924
v 1.04913 0.327825 0.573684
l 419 420
v 0.994441 0.292657 0.2859
v 1.00955 0.293784 0.281927
l 421 422
v 1.18143 0.383244 0.216368
v 1.18843 0.396141 0.211303
l 423 424
v 1.18843 0.396141 0.211303
v 1.19035 0.40045 0.209709
l 425 426
v 1.19035 0.40045 0.209709
v 1.19435 0.411362 0.205868
l 427 428
v 1.19435 0.411362 0.205868
v 1.19628 0.418197 0.203598
l 429 430
v 1.19628 0.418197 0.203598
v 1.19783 0.425218 0.201375
l 431 432
v 1.19783 0.425218 0.201375
v 1.19822 0.427394 0.200708
l 433 434
v 1.00955 0.293784 0.281927
v 1.02693 0.295879 0.276948
l 435 436
v 1.02693 0.295879 0.276948
v 1.03956 0.298019 0.273215
l 437 438
v 1.03956 0.298019 0.273215
v 1.05867 0.302307 0.267328
l 439 440
v 1.05867 0.302307 0.267328
v 1.08804 0.311683 0.257632
l 441 442
v 1.08804 0.311683 0.257632
v 1.11435 0.32361 0.2481
l 443 444
v 1.11435 0.32361 0.2481
v 1.13736 0.337725 0.238849
l 445 446
v 1.13736 0.337725 0.238849
v 1.15704 0.353741 0.229935
l 447 448
v 1.15704 0.353741 0.229935
v 1.16955 0.366913 0.22349
l 449 450
v 1.16955 0.366913 0.22349
v 1.17986 0.380766 0.217394
l 451 452
v 1.17986 0.380766 0.217394
v 1.18143 0.383244 0.216368
l 453 454
v 0.663818 0.270777 0.36418
v 0.724509 0.274764 0.349817
l 455 456
v 0.724509 0.274764 0.349817
v 0.783992 0.278664 0.335735
l 457 458
v 0.783992 0.278664 0.335735
v 0.847069 0.282801 0.320798
l 459 460
v 0.847069 0.282801 0.320798
v 0.905666 0.28667 0.30692
l 461 462
v 0.600443 0.26661 0.379173
v 0.663818 0.270777 0.36418
l 463 464
v 0.534663 0.263584 0.394731
v 0.466826 0.25913 0.410777
l 465 466
v 0.466826 0.25913 0.410777
v 0.39673 0.254532 0.427356
l 467 468
v 0.39673 0.254532 0.427356
v 0.324287 0.249786 0.444489
l 469 470
v 0.324287 0.249786 0.444489
v 0.24949 0.244887 0.462178
l 471 472
v 0.724503 0.276031 0.349817
v 0.663805 0.272062 0.36418
l 473 474
v 0.663805 0.272062 0.36418
v 0.600433 0.267905 0.379173
l 475 476
v 0.600433 0.267905 0.379173
v 0.534663 0.263584 0.394731
l 477 478
v 0.784004 0.279904 0.335733
v 0.724503 0.276031 0.349817
l 479 480
v 0.905721 0.287831 0.306912
v 0.847108 0.284005 0.320792
l 481 482
v 1.03946 0.298975 0.273227
v 1.02687 0.296863 0.276957
l 483 484
v 0.99445 0.293705 0.2859
v 0.954676 0.291055 0.295321
l 485 486
v 1.11394 0.324351 0.248139
v 1.08776 0.312511 0.257661
l 487 488
v 1.06754 0.305704 0.264445
v 1.05851 0.303216 0.267347
l 489 490
v 1.19822 0.427394 0.200708
v 1.19971 0.439862 0.197068
l 491 492
v 1.19971 0.439862 0.197068
v 1.20003 0.449921 0.194337
l 493 494
v 1.13681 0.338377 0.238897
v 1.11394 0.324351 0.248139
l 495 496
v 0.905666 0.28667 0.30692
v 0.954628 0.289946 0.295327
l 497 498
v 1.0269 0.296394 0.276953
v 0.994445 0.293189 0.2859
l 499 500
v 1.05858 0.302761 0.267338
v 1.0269 0.296394 0.276953
l 501 502
v 0.101697 0.242495 0.488145
v 0.0923628 0.242864 0.488825
l 503 504
v 0.0729848 0.23802 0.490132
v 0.101676 0.237504 0.488585
l 505 506
v 0.101676 0.237504 0.488585
v 0.125089 0.237677 0.486076
l 507 508
v 0.0923628 0.242864 0.488825
v 0.0664779 0.244494 0.489591
l 509 510
v 0.125108 0.241959 0.48572
v 0.101697 0.242495 0.488145
l 511 512
v 0.193593 0.242658 0.474443
v 0.144329 0.241861 0.483098
l 513 514
v 0.24949 0.244887 0.462178
v 0.193593 0.242658 0.474443
l 515 516
v 0.144329 0.241861 0.483098
v 0.125108 0.241959 0.48572
l 517 518
v 0.079934 0.280096 1.08551
v 0.0499731 0.271623 1.10588
l 519 520
v 0.121683 0.28398 1.06019
v 0.177445 0.290546 1.03062
l 521 522
v 0.144312 0.238118 0.48339
v 0.193583 0.240163 0.474588
l 523 524
v 0.125089 0.237677 0.486076
v 0.144312 0.238118 0.48339
l 525 526
v 0.193583 0.240163 0.474588
v 0.24949 0.243639 0.462177
l 527 528
