# Wavefront OBJ file written 2021-10-06T13:45:46
o body_edgeMesh

# points : 460
# lines  : 462

# <points count="460">
v -0.000509926 0.19 0.262309
v 1.20003 0.449921 0.194337
v 1.19895 0.449921 0.194337
v 0.399464 0.209295 0.0544099
v 0.399444 0.210758 0.0544612
v 0.399422 0.212213 0.0542985
v 0.399468 0.20881 0.054345
v 0.399454 0.20978 0.0544508
v 0.399422 0.211735 0.0543759
v 0.399333 0.171444 0.192042
v 0.399348 0.1383 0.172727
v 0.399022 0.235 0.472726
v 0.399958 0.235 0.472726
v 0.399022 0.252377 0.472726
v 0.399958 0.252438 0.472726
v 0.0729848 0.23802 0.490132
v -0.000509926 0.278567 1.11176
v -0.000509926 0.29794 1.05689
v -0.000509926 0.225 0.332309
v -0.000509926 0.22491 0.328364
v -0.000509926 0.155 0.332309
v -0.000509926 0.154981 0.334944
v -0.000509926 0.226144 0.345448
v -0.000509926 0.154038 0.351435
v -0.000509926 0.233587 0.381147
v -0.000509926 0.151755 0.368118
v -0.000509926 0.148249 0.385052
v -0.000509926 0.253289 0.453021
v -0.000509926 0.143651 0.402308
v -0.000509926 0.177437 0.274944
v -0.000509926 0.202563 0.274944
v -0.000509926 0.138108 0.419967
v -0.000509926 0.136038 0.426078
v -0.000509926 0.282777 0.556155
v -0.000509926 0.123459 0.460804
v -0.000509926 0.160959 0.301422
v -0.000509926 0.156811 0.314934
v -0.000509926 0.15509 0.328364
v -0.000509926 0.0716353 0.721269
v -0.000509926 0.0716881 0.7635
v -0.000509926 0.223189 0.314934
v -0.000509926 0.219041 0.301422
v -0.000509926 0.212276 0.288125
v -0.000509926 0.167724 0.288125
v -0.000509926 0.329267 0.826041
v -0.000509926 0.325576 0.768689
v -0.000509926 0.0746732 0.869352
v -0.000509926 0.0764729 0.896844
v -0.000509926 0.328488 0.884947
v -0.000509926 0.0727015 0.820376
v -0.000509926 0.19411 1.25481
v -0.000509926 0.195358 1.2539
v -0.000509926 0.1994 1.25059
v -0.000509926 0.202028 1.24813
v -0.000509926 0.20318 1.24697
v -0.000509926 0.204645 1.24543
v -0.000509926 0.312714 1.00042
v -0.000509926 0.101521 1.06524
v -0.000509926 0.113091 1.11885
v -0.000509926 0.115071 1.12739
v -0.000509926 0.145 1.23231
v -0.000509926 0.147885 1.23934
v -0.000509926 0.123501 1.16141
v -0.000509926 0.13422 1.19938
v -0.000509926 0.196761 1.25282
v -0.000509926 0.215 1.23231
v -0.000509926 0.227536 1.21282
v -0.000509926 0.255131 1.16357
v -0.000509926 0.317356 0.707528
v -0.000509926 0.310886 0.67225
v -0.000509926 0.0723533 0.691449
v -0.000509926 0.304069 0.640212
v -0.000509926 0.0739633 0.662732
v -0.000509926 0.188775 1.25809
v -0.000509926 0.191448 1.25657
v -0.000509926 0.0772227 0.906159
v -0.000509926 0.080192 0.936217
v -0.000509926 0.322904 0.943057
v -0.000509926 0.0854506 0.97601
v -0.000509926 0.0921442 1.0166
v -0.000509926 0.148468 1.24061
v -0.000509926 0.153434 1.24957
v -0.000509926 0.154683 1.25137
v -0.000509926 0.183395 1.26043
v -0.000509926 0.188261 1.25836
v -0.000509926 0.157487 1.25481
v -0.000509926 0.158763 1.25613
v -0.000509926 0.108286 0.50325
v -0.000509926 0.103471 0.517835
v -0.000509926 0.0936316 0.550649
v -0.000509926 0.0859033 0.581419
v -0.000509926 0.1725 1.26231
v -0.000509926 0.175241 1.26219
v -0.000509926 0.16973 1.26209
v -0.000509926 0.0801345 0.610714
v -0.000509926 0.0766485 0.635004
v -0.000509926 0.159838 1.25712
v -0.000509926 0.163015 1.2595
v -0.000509926 0.165801 1.26095
v -0.000509926 0.16708 1.26143
v -0.000509926 0.16851 1.26184
v -0.000509926 0.176965 1.262
v -0.000509926 0.182097 1.26086
v 0.399479 0.20858 0.0542784
v 0.399397 0.213628 0.0539253
v 0.399965 -3.46748e-09 0.00026679
v 0.399996 -3.46748e-09 0.000326395
v 0.400015 -3.46748e-09 0.000376582
v 0.400026 -3.46748e-09 0.000412225
v 0.398938 -3.46748e-09 0.000495314
v 0.398946 -3.46748e-09 0.000446677
v 0.399874 -3.46748e-09 0.000154614
v 0.399904 -3.46748e-09 0.00018537
v 0.399957 -3.46748e-09 0.000253677
v 0.402411 -3.46748e-09 0.0494322
v 0.402258 -3.46748e-09 0.0512618
v 0.400042 -3.46748e-09 0.000495314
v 0.400087 -3.46748e-09 0.000920534
v 0.398792 -3.46748e-09 0.00187075
v 0.400188 -3.46748e-09 0.00187135
v 0.398596 -3.46748e-09 0.00377202
v 0.400385 -3.46748e-09 0.00377262
v 0.398223 -3.46748e-09 0.00757349
v 0.400758 -3.46748e-09 0.00757396
v 0.397554 -3.46748e-09 0.0151727
v 0.398968 -3.46748e-09 0.000367164
v 0.398995 -3.46748e-09 0.000303626
v 0.399835 -3.46748e-09 0.000120878
v 0.399789 -3.46748e-09 8.76186e-05
v 0.399007 -3.46748e-09 0.000282287
v 0.399051 -3.46748e-09 0.000215292
v 0.399491 -3.46748e-09 -2.63245e-10
v 0.399512 -3.46748e-09 4.76574e-07
v 0.399597 -3.46748e-09 1.03709e-05
v 0.399071 -3.46748e-09 0.000190615
v 0.399112 -3.46748e-09 0.000149131
v 0.399422 -3.46748e-09 4.29127e-06
v 0.399183 -3.46748e-09 9.31022e-05
v 0.399335 -3.46748e-09 2.19342e-05
v 0.399259 -3.46748e-09 5.00676e-05
v 0.399677 -3.46748e-09 3.2067e-05
v 0.399751 -3.46748e-09 6.52072e-05
v 0.396821 -3.46748e-09 0.0522074
v 0.396723 -3.46748e-09 0.0512617
v 0.402159 -3.46748e-09 0.0522075
v 0.401726 -3.46748e-09 0.0190364
v 0.402578 -3.46748e-09 0.0344945
v 0.396562 -3.46748e-09 0.0303662
v 0.401426 -3.46748e-09 0.0151732
v 0.396645 -3.46748e-09 0.0504059
v 0.396637 -3.46748e-09 0.0503147
v 0.402416 -3.46748e-09 0.049367
v 0.396564 -3.46748e-09 0.0493667
v 0.40253 -3.46748e-09 0.0474691
v 0.39645 -3.46748e-09 0.047469
v 0.402609 -3.46748e-09 0.0455698
v 0.396371 -3.46748e-09 0.0455695
v 0.402659 -3.46748e-09 0.0379672
v 0.396308 -3.46748e-09 0.0389386
v 0.3965 -3.46748e-09 0.0318006
v 0.39948 0.207855 0.0541452
v 0.399454 0.209776 0.0544505
v 0.399438 0.210756 0.0544615
v 0.398776 0.0435172 0.121463
v 0.398964 0.0363241 0.116103
v 0.398917 0.0511213 0.126794
v 0.39959 0.0511199 0.126961
v 0.399681 0.0435146 0.121715
v 0.400925 0.0363405 0.11518
v 0.401052 0.0296228 0.109177
v 0.399582 0.0363225 0.116257
v 0.39939 0.0511199 0.126961
v 0.399299 0.0435146 0.121715
v 0.399398 0.0363225 0.116257
v 0.400063 0.0511213 0.126794
v 0.400204 0.0435172 0.121463
v 0.400798 0.0234075 0.103477
v 0.397928 0.0296228 0.109177
v 0.398055 0.0363405 0.11518
v 0.398182 0.0234075 0.103477
v 0.400016 0.0363241 0.116103
v 1.20018 0.449921 0.196266
v 1.19949 0.449921 0.194337
v 1.20039 0.449921 0.199601
v 1.20036 0.449921 0.199086
v 1.20031 0.449921 0.198153
v 1.19856 0.449921 0.200395
v 1.19854 0.449921 0.200848
v 1.19853 0.449921 0.201301
v 1.20046 0.449921 0.20185
v 1.20045 0.449921 0.201392
v 1.20047 0.449921 0.202308
v 1.20047 0.449921 0.202595
v 1.20044 0.449921 0.200933
v 1.20041 0.449921 0.200012
v 1.19876 0.449921 0.196826
v 1.19867 0.449921 0.198107
v 1.19862 0.449921 0.199026
v 1.19858 0.449921 0.19994
v 1.19852 0.449921 0.201754
v 0.954628 0.289946 0.295327
v 0.994441 0.292657 0.2859
v 0.954676 0.291055 0.295321
v 0.905721 0.287831 0.306912
v 0.847108 0.284005 0.320792
v 0.784004 0.279904 0.335733
v 1.15635 0.354304 0.22999
v 1.15408 0.352202 0.231091
v 1.05851 0.303216 0.267347
v 1.03946 0.298975 0.273227
v 0.534666 0.262287 0.394732
v 0.600443 0.26661 0.379173
v 0.466824 0.257838 0.410777
v 0.396725 0.253251 0.427356
v 0.324284 0.24852 0.444488
v 0.24949 0.243639 0.462177
v 1.00953 0.294804 0.281931
v 0.99445 0.293705 0.2859
v 1.02687 0.296863 0.276957
v 1.08776 0.312511 0.257661
v 1.06754 0.305704 0.264445
v 1.16877 0.36741 0.223549
v 1.13681 0.338377 0.238897
v 1.19524 0.418486 0.203653
v 1.19334 0.411676 0.205925
v 1.18533 0.392135 0.213039
v 1.17899 0.3812 0.217455
v 1.18748 0.396512 0.211363
v 1.19676 0.425462 0.201426
v 1.19861 0.439962 0.197095
v 1.06543 0.330713 0.558924
v 1.08057 0.33362 0.544462
v 1.04913 0.327825 0.573684
v 1.00955 0.293784 0.281927
v 1.18143 0.383244 0.216368
v 1.18843 0.396141 0.211303
v 1.19035 0.40045 0.209709
v 1.19435 0.411362 0.205868
v 1.19628 0.418197 0.203598
v 1.19783 0.425218 0.201375
v 1.19822 0.427394 0.200708
v 1.02693 0.295879 0.276948
v 1.03956 0.298019 0.273215
v 1.05867 0.302307 0.267328
v 1.08804 0.311683 0.257632
v 1.11435 0.32361 0.2481
v 1.13736 0.337725 0.238849
v 1.15704 0.353741 0.229935
v 1.16955 0.366913 0.22349
v 1.17986 0.380766 0.217394
v 0.663818 0.270777 0.36418
v 0.724509 0.274764 0.349817
v 0.783992 0.278664 0.335735
v 0.847069 0.282801 0.320798
v 0.905666 0.28667 0.30692
v 0.534663 0.263584 0.394731
v 0.466826 0.25913 0.410777
v 0.39673 0.254532 0.427356
v 0.324287 0.249786 0.444489
v 0.24949 0.244887 0.462178
v 0.724503 0.276031 0.349817
v 0.663805 0.272062 0.36418
v 0.600433 0.267905 0.379173
v 1.11394 0.324351 0.248139
v 1.19971 0.439862 0.197068
v 1.0269 0.296394 0.276953
v 0.994445 0.293189 0.2859
v 1.05858 0.302761 0.267338
v 0.101697 0.242495 0.488145
v 0.0923628 0.242864 0.488825
v 0.101676 0.237504 0.488585
v 0.125089 0.237677 0.486076
v 0.0664779 0.244494 0.489591
v 0.125108 0.241959 0.48572
v 0.193593 0.242658 0.474443
v 0.144329 0.241861 0.483098
v 0.079934 0.280096 1.08551
v 0.0499731 0.271623 1.10588
v 0.121683 0.28398 1.06019
v 0.177445 0.290546 1.03062
v 0.144312 0.238118 0.48339
v 0.193583 0.240163 0.474588
v 0.399468 0.208813 0.0543454
v 0.399405 0.212678 0.0542002
v 0.399422 0.211728 0.054377
v 0.399367 0.214543 0.0535592
v 0.399373 0.214974 0.053349
v 0.399348 0.215384 0.0531244
v 0.399347 0.215397 0.0531167
v 0.39949 0.15542 0.182074
v 0.399193 0.15542 0.182041
v 0.409221 0.235 0.859467
v 0.407367 0.235 0.864365
v 0.40699 0.235 0.865178
v 0.413305 0.235 0.843312
v 0.412864 0.235 0.845584
v 0.412148 0.235 0.848948
v 0.411375 0.235 0.852164
v 0.410511 0.235 0.855342
v 0.409519 0.235 0.858569
v 0.410863 0.235 0.582127
v 0.411734 0.235 0.592697
v 0.409957 0.235 0.571509
v 0.409012 0.235 0.560809
v 0.408609 0.235 0.556353
v 0.40699 0.235 0.539056
v 0.402677 0.235 0.870956
v 0.40165 0.235 0.871666
v 0.400841 0.235 0.87205
v 0.40573 0.235 0.867421
v 0.404028 0.235 0.869661
v 0.400247 0.235 0.872226
v 0.399685 0.235 0.872303
v 0.39949 0.235 0.872309
v 0.39912 0.235 0.872289
v 0.398539 0.235 0.872178
v 0.39787 0.235 0.87194
v 0.397073 0.235 0.871511
v 0.396095 0.235 0.870783
v 0.394882 0.235 0.869583
v 0.393244 0.235 0.867412
v 0.39199 0.235 0.865178
v 0.388114 0.235 0.582167
v 0.389021 0.235 0.571539
v 0.389966 0.235 0.560829
v 0.390955 0.235 0.550006
v 0.39199 0.235 0.539056
v 0.386403 0.235 0.603322
v 0.387243 0.235 0.592747
v 0.38783 0.235 0.585573
v 0.391735 0.235 0.864636
v 0.390916 0.235 0.862671
v 0.389109 0.235 0.857469
v 0.388472 0.235 0.855351
v 0.387598 0.235 0.852137
v 0.386822 0.235 0.848903
v 0.386112 0.235 0.845563
v 0.38783 0.254905 0.585574
v 0.390538 0.253549 0.554531
v 0.3877 0.254983 0.58715
v 0.391848 0.25308 0.54054
v 0.396481 0.252288 0.495229
v 0.397083 0.252279 0.48978
v 0.398949 0.25237 0.473364
v 0.381183 0.261012 0.6856
v 0.384064 0.257749 0.635462
v 0.381177 0.261021 0.685733
v 0.379669 0.264215 0.731598
v 0.384926 0.274971 0.839087
v 0.383644 0.273744 0.830584
v 0.379484 0.265973 0.754431
v 0.379623 0.267203 0.769247
v 0.379902 0.268225 0.780724
v 0.381156 0.270715 0.805706
v 0.381395 0.271069 0.808917
v 0.38645 0.276272 0.847201
v 0.392296 0.280005 0.865784
v 0.391737 0.279724 0.864639
v 0.389579 0.278466 0.858928
v 0.393846 0.280679 0.868289
v 0.393245 0.280433 0.867414
v 0.395511 0.281286 0.870246
v 0.394882 0.281069 0.869582
v 0.396562 0.281613 0.871158
v 0.396094 0.281473 0.870783
v 0.397558 0.281879 0.871791
v 0.397072 0.281755 0.871511
v 0.398328 0.282054 0.872116
v 0.39787 0.281953 0.87194
v 0.39912 0.282202 0.872289
v 0.399051 0.28219 0.87228
v 0.398957 0.282174 0.872267
v 0.398538 0.282096 0.872178
v 0.399589 0.282272 0.872307
v 0.399684 0.282285 0.872303
v 0.40014 0.282338 0.872247
v 0.4008 0.282395 0.872065
v 0.401466 0.282428 0.871767
v 0.40165 0.282434 0.871666
v 0.402161 0.28244 0.871343
v 0.402677 0.282433 0.870956
v 0.403134 0.282418 0.870564
v 0.404187 0.282345 0.869482
v 0.404745 0.282286 0.868806
v 0.405731 0.282145 0.86742
v 0.406339 0.28203 0.866418
v 0.407367 0.281767 0.864364
v 0.407776 0.281636 0.8634
v 0.409843 0.280816 0.857558
v 0.412593 0.279339 0.846902
v 0.416355 0.276202 0.822218
v 0.414687 0.277778 0.835116
v 0.413304 0.278852 0.843313
v 0.41757 0.274736 0.809111
v 0.417635 0.274646 0.808268
v 0.418721 0.272797 0.790089
v 0.418261 0.265016 0.696259
v 0.41927 0.267562 0.729378
v 0.419465 0.270128 0.760675
v 0.419491 0.269741 0.756139
v 0.415379 0.260957 0.642461
v 0.40963 0.255715 0.56776
v 0.411059 0.256764 0.584473
v 0.401758 0.252586 0.488542
v 0.404942 0.253339 0.518378
v 0.407963 0.254686 0.549341
v 0.39949 0.252408 0.472726
v 0.0742112 0.237859 0.492007
v 0.078988 0.237263 0.499594
v 0.0904866 0.236086 0.519727
v 0.115149 0.235261 0.574512
v 0.106456 0.235232 0.552775
v 0.0963455 0.235653 0.531069
v 0.128401 0.236336 0.619313
v 0.122422 0.23565 0.596505
v 0.133196 0.237273 0.643466
v 0.134997 0.237764 0.65489
v 0.138673 0.239194 0.686191
v 0.141647 0.24303 0.783048
v 0.141853 0.242143 0.755738
v 0.141408 0.241218 0.731705
v 0.140955 0.240719 0.719937
v 0.138182 0.244576 0.851253
v 0.140111 0.244027 0.822982
v 0.135291 0.245087 0.881909
v 0.137181 0.244778 0.86293
v 0.127505 0.247125 0.936832
v 0.128741 0.246597 0.929942
v 0.128771 0.246584 0.929767
v 0.131842 0.245601 0.910022
v 0.132364 0.245493 0.906223
v 0.11167 0.255989 0.997999
v 0.112118 0.255743 0.996678
v 0.118821 0.251861 0.974797
v 0.124345 0.248696 0.952434
v 0.101244 0.261008 1.02506
v 0.10436 0.259663 1.01761
v 0.105434 0.259169 1.01493
v 0.105447 0.259163 1.0149
v 0.083379 0.266464 1.06045
v 0.086942 0.265652 1.05418
v 0.0777987 0.267508 1.06967
v 0.0747439 0.26796 1.07444
v 0.0730038 0.268178 1.0771
v 0.0649296 0.268866 1.08878
v 0.0587825 0.269125 1.0969
v 0.0585235 0.269133 1.09722
v 0.0546307 0.269342 1.1017
v 0.0556123 0.269263 1.10066
v 0.0533455 0.269463 1.10297
v 0.0524797 0.269554 1.10379
v 0.0512095 0.269699 1.10493
v 0.0499597 0.269853 1.10598
v 0.0636048 0.275311 1.09629
v 0.125151 0.248271 0.948693
v 0.0927912 0.264042 1.04311
v 0.0992631 0.261799 1.02954
v 0.14768 0.287102 1.0458
v 0.0565934 0.2692 1.09957
v 0.0714675 0.239764 0.489997
# </points>

# <edges count="462">
l 17 18
l 19 20
l 21 22
l 23 19
l 22 24
l 25 23
l 24 26
l 26 27
l 28 25
l 27 29
l 1 30
l 31 1
l 29 32
l 32 33
l 34 28
l 33 35
l 36 37
l 37 38
l 38 21
l 39 40
l 41 42
l 42 43
l 43 31
l 20 41
l 30 44
l 44 36
l 45 46
l 47 48
l 49 45
l 50 47
l 40 50
l 51 52
l 53 54
l 54 55
l 55 56
l 18 57
l 58 59
l 59 60
l 61 62
l 63 64
l 52 65
l 65 53
l 56 66
l 66 67
l 60 63
l 67 68
l 68 17
l 46 69
l 69 70
l 71 39
l 70 72
l 73 71
l 64 61
l 74 75
l 75 51
l 48 76
l 76 77
l 78 49
l 77 79
l 57 78
l 79 80
l 80 58
l 62 81
l 81 82
l 82 83
l 84 85
l 85 74
l 86 87
l 83 86
l 35 88
l 88 89
l 72 34
l 89 90
l 90 91
l 92 93
l 94 92
l 91 95
l 95 96
l 96 73
l 97 98
l 98 99
l 99 100
l 87 97
l 100 101
l 101 94
l 93 102
l 102 103
l 103 84
l 104 4
l 4 5
l 5 6
l 6 105
l 106 107
l 107 108
l 108 109
l 110 111
l 112 113
l 113 114
l 114 106
l 115 116
l 109 117
l 117 118
l 119 110
l 118 120
l 121 119
l 120 122
l 123 121
l 122 124
l 125 123
l 111 126
l 126 127
l 128 112
l 129 128
l 130 131
l 127 130
l 132 133
l 133 134
l 131 135
l 135 136
l 137 132
l 136 138
l 139 137
l 140 139
l 138 140
l 134 141
l 141 142
l 142 129
l 143 144
l 116 145
l 146 147
l 148 125
l 149 146
l 124 149
l 144 150
l 150 151
l 152 115
l 151 153
l 154 152
l 153 155
l 156 154
l 155 157
l 158 156
l 157 159
l 147 158
l 159 160
l 160 148
l 161 104
l 162 8
l 7 8
l 163 9
l 164 165
l 166 164
l 167 168
l 169 170
l 168 171
l 172 173
l 173 174
l 175 176
l 177 170
l 10 11
l 178 179
l 178 180
l 181 176
l 14 12
l 13 15
l 182 2
l 2 183
l 184 185
l 185 186
l 186 182
l 187 188
l 188 189
l 190 191
l 192 190
l 193 192
l 191 194
l 194 195
l 195 184
l 3 196
l 183 3
l 196 197
l 197 198
l 198 199
l 199 187
l 189 200
l 201 202
l 203 204
l 205 206
l 207 208
l 209 210
l 211 212
l 213 211
l 214 213
l 215 214
l 216 215
l 217 218
l 219 217
l 220 221
l 222 207
l 208 223
l 224 225
l 226 227
l 228 226
l 229 224
l 230 229
l 3 230
l 227 222
l 225 228
l 231 232
l 231 233
l 202 234
l 235 236
l 236 237
l 237 238
l 238 239
l 239 240
l 240 241
l 234 242
l 242 243
l 243 244
l 244 245
l 245 246
l 246 247
l 247 248
l 248 249
l 249 250
l 250 235
l 251 252
l 252 253
l 253 254
l 254 255
l 212 251
l 256 257
l 257 258
l 258 259
l 259 260
l 261 262
l 262 263
l 263 256
l 206 261
l 204 205
l 210 219
l 218 203
l 264 220
l 221 209
l 241 265
l 265 2
l 223 264
l 255 201
l 266 267
l 268 266
l 269 270
l 16 271
l 271 272
l 270 273
l 274 269
l 275 276
l 260 275
l 276 274
l 277 278
l 279 280
l 281 282
l 272 281
l 282 216
l 4 283
l 162 4
l 7 283
l 161 7
l 8 5
l 5 9
l 9 6
l 6 284
l 9 285
l 163 285
l 105 286
l 286 287
l 288 287
l 289 288
l 165 166
l 167 171
l 172 174
l 177 169
l 290 11
l 10 290
l 11 291
l 10 291
l 180 179
l 181 175
l 292 293
l 293 294
l 295 296
l 296 297
l 297 298
l 298 299
l 299 300
l 300 292
l 301 302
l 303 301
l 304 303
l 305 304
l 306 305
l 307 308
l 308 309
l 294 310
l 310 311
l 311 307
l 309 312
l 312 313
l 313 314
l 315 316
l 314 315
l 316 317
l 317 318
l 318 319
l 319 320
l 320 321
l 321 322
l 323 324
l 324 325
l 325 326
l 326 327
l 328 329
l 329 330
l 330 323
l 322 331
l 331 332
l 332 333
l 333 334
l 334 335
l 335 336
l 336 337
l 327 12
l 12 13
l 13 306
l 338 339
l 340 338
l 341 342
l 339 341
l 342 343
l 343 344
l 344 14
l 345 346
l 346 340
l 347 345
l 348 347
l 349 350
l 351 348
l 352 351
l 353 352
l 354 353
l 355 354
l 350 355
l 356 349
l 357 358
l 358 359
l 359 356
l 360 361
l 361 357
l 362 363
l 363 360
l 364 365
l 365 362
l 366 367
l 367 364
l 368 369
l 369 366
l 370 371
l 371 372
l 372 373
l 373 368
l 374 370
l 375 374
l 376 375
l 377 376
l 378 377
l 379 378
l 380 379
l 381 380
l 382 381
l 383 382
l 384 383
l 385 384
l 386 385
l 387 386
l 388 387
l 389 388
l 390 389
l 391 392
l 393 390
l 392 393
l 394 391
l 395 394
l 396 395
l 397 398
l 399 396
l 400 399
l 398 400
l 401 397
l 402 403
l 403 401
l 15 404
l 404 405
l 405 406
l 406 402
l 14 407
l 407 15
l 232 233
l 408 16
l 409 408
l 410 409
l 411 412
l 412 413
l 413 410
l 414 415
l 415 411
l 416 414
l 417 416
l 418 417
l 419 420
l 420 421
l 421 422
l 422 418
l 423 424
l 425 426
l 426 423
l 427 428
l 428 429
l 429 430
l 430 431
l 432 433
l 433 434
l 434 435
l 436 437
l 437 438
l 438 439
l 439 432
l 440 441
l 442 440
l 443 442
l 444 443
l 445 444
l 446 445
l 447 446
l 448 449
l 450 448
l 451 450
l 452 451
l 453 452
l 278 454
l 454 277
l 431 425
l 455 427
l 435 455
l 441 456
l 456 457
l 457 436
l 280 458
l 459 447
l 449 459
l 424 419
l 16 460
l 460 273
# </edges>
