v 0.399479 0.20858 0.0542784
v 0.399464 0.209295 0.0544099
l 1 2
v 0.399464 0.209295 0.0544099
v 0.399444 0.210758 0.0544612
l 3 4
v 0.399464 0.209295 0.0544099
v 0.399468 0.208813 0.0543454
l 5 6
v 0.399454 0.209776 0.0544505
v 0.399464 0.209295 0.0544099
l 7 8
v 0.399464 0.209295 0.0544099
v 0.399444 0.210758 0.0544612
l 9 10
v 0.399444 0.210758 0.0544612
v 0.399422 0.212213 0.0542985
l 11 12
v 0.399454 0.20978 0.0544508
v 0.399444 0.210758 0.0544612
l 13 14
v 0.399444 0.210758 0.0544612
v 0.399422 0.211735 0.0543759
l 15 16
v 0.399444 0.210758 0.0544612
v 0.399422 0.212213 0.0542985
l 17 18
v 0.399422 0.212213 0.0542985
v 0.399397 0.213628 0.0539253
l 19 20
v 0.399422 0.211735 0.0543759
v 0.399422 0.212213 0.0542985
l 21 22
v 0.399422 0.212213 0.0542985
v 0.399405 0.212678 0.0542002
l 23 24
v 0.399468 0.20881 0.054345
v 0.399454 0.20978 0.0544508
l 25 26
v 0.399468 0.20881 0.054345
v 0.399468 0.208813 0.0543454
l 27 28
v 0.39948 0.207855 0.0541452
v 0.399468 0.20881 0.054345
l 29 30
v 0.399454 0.209776 0.0544505
v 0.399454 0.20978 0.0544508
l 31 32
v 0.399468 0.20881 0.054345
v 0.399454 0.20978 0.0544508
l 33 34
v 0.399454 0.20978 0.0544508
v 0.399444 0.210758 0.0544612
l 35 36
v 0.399438 0.210756 0.0544615
v 0.399422 0.211735 0.0543759
l 37 38
v 0.399444 0.210758 0.0544612
v 0.399422 0.211735 0.0543759
l 39 40
v 0.399422 0.211735 0.0543759
v 0.399422 0.212213 0.0542985
l 41 42
v 0.399422 0.211735 0.0543759
v 0.399422 0.211728 0.054377
l 43 44
v 0.399333 0.171444 0.192042
v 0.399348 0.1383 0.172727
l 45 46
v 0.399333 0.171444 0.192042
v 0.39949 0.15542 0.182074
l 47 48
v 0.399333 0.171444 0.192042
v 0.399193 0.15542 0.182041
l 49 50
v 0.399333 0.171444 0.192042
v 0.399348 0.1383 0.172727
l 51 52
v 0.39949 0.15542 0.182074
v 0.399348 0.1383 0.172727
l 53 54
v 0.399348 0.1383 0.172727
v 0.399193 0.15542 0.182041
l 55 56
v 0.399022 0.252377 0.472726
v 0.399022 0.235 0.472726
l 57 58
v 0.39199 0.235 0.539056
v 0.399022 0.235 0.472726
l 59 60
v 0.399022 0.235 0.472726
v 0.399958 0.235 0.472726
l 61 62
v 0.399958 0.235 0.472726
v 0.399958 0.252438 0.472726
l 63 64
v 0.399022 0.235 0.472726
v 0.399958 0.235 0.472726
l 65 66
v 0.399958 0.235 0.472726
v 0.40699 0.235 0.539056
l 67 68
v 0.399022 0.252377 0.472726
v 0.399022 0.235 0.472726
l 69 70
v 0.398949 0.25237 0.473364
v 0.399022 0.252377 0.472726
l 71 72
v 0.399022 0.252377 0.472726
v 0.39949 0.252408 0.472726
l 73 74
v 0.399958 0.235 0.472726
v 0.399958 0.252438 0.472726
l 75 76
v 0.399958 0.252438 0.472726
v 0.401758 0.252586 0.488542
l 77 78
v 0.39949 0.252408 0.472726
v 0.399958 0.252438 0.472726
l 79 80
v 0.0729848 0.23802 0.490132
v 0.101676 0.237504 0.488585
l 81 82
v 0.0742112 0.237859 0.492007
v 0.0729848 0.23802 0.490132
l 83 84
v 0.0729848 0.23802 0.490132
v 0.0714675 0.239764 0.489997
l 85 86
